# bits	seconds
1	0.000000
2	0.000000
3	0.000000
4	0.000000
5	0.000000
6	0.000000
7	0.000001
8	0.000001
9	0.000002
10	0.000005
11	0.000009
12	0.000018
13	0.000036
14	0.000072
15	0.000144
16	0.000265
17	0.000530
18	0.000755
19	0.001214
20	0.002400
21	0.004819
22	0.009641
23	0.019211
24	0.038550
25	0.077030
26	0.153945
27	0.310241
28	0.616005
29	1.233827
30	2.468398
31	4.940171
32	9.872252
33	19.748904
34	39.533422
35	81.599306
36	158.110173
