Macro '_LP64' NOT defined

Type               | name | sizeof | digits | Minimum              | Maximum
-------------------+------+--------+--------+----------------------+----------------------
bool               | b    |      1 |      1 |                    0 |                    1
-------------------+------+--------+--------+----------------------+----------------------
char               | c    |      1 |      7 |                 -128 |                  127
-------------------+------+--------+--------+----------------------+----------------------
short              | s    |      2 |     15 |               -32768 |                32767
int                | i    |      4 |     31 |          -2147483648 |           2147483647
long               | l    |      4 |     31 |          -2147483648 |           2147483647
long long          | x    |      8 |     63 | -9223372036854775808 |  9223372036854775807
-------------------+------+--------+--------+----------------------+----------------------
unsigned char      | h    |      1 |      8 |                    0 |                  255
-------------------+------+--------+--------+----------------------+----------------------
unsigned short     | t    |      2 |     16 |                    0 |                65535
unsigned int       | j    |      4 |     32 |                    0 |           4294967295
unsigned long      | m    |      4 |     32 |                    0 |           4294967295
unsigned long long | y    |      8 |     64 |                    0 | 18446744073709551615
-------------------+------+--------+--------+----------------------+----------------------
signed char        | a    |      1 |      7 |                 -128 |                  127
-------------------+------+--------+--------+----------------------+----------------------
signed short       | s    |      2 |     15 |               -32768 |                32767
signed int         | i    |      4 |     31 |          -2147483648 |           2147483647
signed long        | l    |      4 |     31 |          -2147483648 |           2147483647
signed long long   | x    |      8 |     63 | -9223372036854775808 |  9223372036854775807
-------------------+------+--------+--------+----------------------+----------------------
uint8_t            | h    |      1 |      8 |                    0 |                  255
uint16_t           | t    |      2 |     16 |                    0 |                65535
uint32_t           | j    |      4 |     32 |                    0 |           4294967295
uint64_t           | y    |      8 |     64 |                    0 | 18446744073709551615
uintmax_t          | y    |      8 |     64 |                    0 | 18446744073709551615
-------------------+------+--------+--------+----------------------+----------------------
int8_t             | a    |      1 |      7 |                 -128 |                  127
int16_t            | s    |      2 |     15 |               -32768 |                32767
int32_t            | i    |      4 |     31 |          -2147483648 |           2147483647
int64_t            | x    |      8 |     63 | -9223372036854775808 |  9223372036854775807
intmax_t           | x    |      8 |     63 | -9223372036854775808 |  9223372036854775807
-------------------+------+--------+--------+----------------------+----------------------
float              | f    |      4 |     24 |         1.17549e-038 |         3.40282e+038
double             | d    |      8 |     53 |         2.22507e-308 |         1.79769e+308
long double        | e    |     12 |     64 |         3.3621e-4932 |        1.18973e+4932
-------------------+------+--------+--------+----------------------+----------------------
void*              | Pv   |      4 |      0 |                    0 |                    0
