Ksh Version AJM 93u+ 2012-08-01
========== With echo -n ==========
----- NL -----

----- LINE -----
one\ntwo\nthree\n----- MULTLINE -----
one
two
three
========== With printf %s ==========
----- NL -----

----- LINE -----
one\ntwo\nthree\n----- MULTLINE -----
one
two
three
